Ulkasemi/APB_Testbench_Md_Fazlul_Karim/transcript
# vsim -c tb_top -do "run -all" 
# Start time: 10:33:00 on Nov 02,2024
# Loading sv_std.std
# Loading work.filelist_sv_unit
# Loading work.tb_top
# Loading work.apb_interface
# Loading work.apb_slave
# run -all
# PASSED AT ADDR: 0 EXPECTED: 8eb74a7c ACTUAL: 8eb74a7c
# PASSED AT ADDR: 1 EXPECTED: 4682679c ACTUAL: 4682679c
# PASSED AT ADDR: 2 EXPECTED: 3030ba1c ACTUAL: 3030ba1c
# PASSED AT ADDR: 3 EXPECTED: 519afde8 ACTUAL: 519afde8
# PASSED AT ADDR: 4 EXPECTED: c73523a7 ACTUAL: c73523a7
# PASSED AT ADDR: 5 EXPECTED: 61604716 ACTUAL: 61604716
# PASSED AT ADDR: 6 EXPECTED: 456ee1c4 ACTUAL: 456ee1c4
# PASSED AT ADDR: 7 EXPECTED: 4879f300 ACTUAL: 4879f300
# PASSED AT ADDR: 8 EXPECTED: 3d23d59 ACTUAL: 3d23d59
# PASSED AT ADDR: 9 EXPECTED: 58b64df8 ACTUAL: 58b64df8
# PASSED AT ADDR: a EXPECTED: 40c04bfb ACTUAL: 40c04bfb
# PASSED AT ADDR: b EXPECTED: 1fc6b311 ACTUAL: 1fc6b311
# PASSED AT ADDR: c EXPECTED: f9bd74a2 ACTUAL: f9bd74a2
# PASSED AT ADDR: d EXPECTED: 3b8f4ffc ACTUAL: 3b8f4ffc
# PASSED AT ADDR: e EXPECTED: 68c470a5 ACTUAL: 68c470a5
# PASSED AT ADDR: f EXPECTED: 31ed88de ACTUAL: 31ed88de
# PASSED AT ADDR: 10 EXPECTED: 840d1196 ACTUAL: 840d1196
# PASSED AT ADDR: 11 EXPECTED: 37575c90 ACTUAL: 37575c90
# PASSED AT ADDR: 12 EXPECTED: 6bf09d17 ACTUAL: 6bf09d17
# PASSED AT ADDR: 13 EXPECTED: 49c4b7de ACTUAL: 49c4b7de
# PASSED AT ADDR: 14 EXPECTED: 24b5be83 ACTUAL: 24b5be83
# PASSED AT ADDR: 15 EXPECTED: c3b85986 ACTUAL: c3b85986
# PASSED AT ADDR: 16 EXPECTED: 23dca814 ACTUAL: 23dca814
# PASSED AT ADDR: 17 EXPECTED: 2bdf79cd ACTUAL: 2bdf79cd
# PASSED AT ADDR: 18 EXPECTED: d8e7c65c ACTUAL: d8e7c65c
# PASSED AT ADDR: 19 EXPECTED: 3e6f604f ACTUAL: 3e6f604f
# PASSED AT ADDR: 1a EXPECTED: 70e17b2 ACTUAL: 70e17b2
# PASSED AT ADDR: 1b EXPECTED: c182e897 ACTUAL: c182e897
# PASSED AT ADDR: 1c EXPECTED: 37d356ff ACTUAL: 37d356ff
# PASSED AT ADDR: 1d EXPECTED: 83d3cf1e ACTUAL: 83d3cf1e
# PASSED AT ADDR: 1e EXPECTED: 826f4bac ACTUAL: 826f4bac
# PASSED AT ADDR: 1f EXPECTED: 997a812c ACTUAL: 997a812c
# PASSED AT ADDR: 20 EXPECTED: ae3cd4e4 ACTUAL: ae3cd4e4
# PASSED AT ADDR: 21 EXPECTED: 49804e9e ACTUAL: 49804e9e
# PASSED AT ADDR: 22 EXPECTED: 4dc41f85 ACTUAL: 4dc41f85
# PASSED AT ADDR: 23 EXPECTED: 9df1a1b2 ACTUAL: 9df1a1b2
# PASSED AT ADDR: 24 EXPECTED: 1c1d169b ACTUAL: 1c1d169b
# PASSED AT ADDR: 25 EXPECTED: b9fe2752 ACTUAL: b9fe2752
# PASSED AT ADDR: 26 EXPECTED: b4e758ad ACTUAL: b4e758ad
# PASSED AT ADDR: 27 EXPECTED: f6ee3b31 ACTUAL: f6ee3b31
# PASSED AT ADDR: 28 EXPECTED: 9cac3918 ACTUAL: 9cac3918
# PASSED AT ADDR: 29 EXPECTED: de7eeb99 ACTUAL: de7eeb99
# PASSED AT ADDR: 2a EXPECTED: 241e13c0 ACTUAL: 241e13c0
# PASSED AT ADDR: 2b EXPECTED: 146ea402 ACTUAL: 146ea402
# PASSED AT ADDR: 2c EXPECTED: 72c1e68c ACTUAL: 72c1e68c
# PASSED AT ADDR: 2d EXPECTED: fec5fee1 ACTUAL: fec5fee1
# PASSED AT ADDR: 2e EXPECTED: f2a95388 ACTUAL: f2a95388
# PASSED AT ADDR: 2f EXPECTED: 9eee4f2f ACTUAL: 9eee4f2f
# PASSED AT ADDR: 30 EXPECTED: d71ebb35 ACTUAL: d71ebb35
# PASSED AT ADDR: 31 EXPECTED: 75655f14 ACTUAL: 75655f14
# PASSED AT ADDR: 32 EXPECTED: bc21b60f ACTUAL: bc21b60f
# PASSED AT ADDR: 33 EXPECTED: f1eeed11 ACTUAL: f1eeed11
# PASSED AT ADDR: 34 EXPECTED: c219042d ACTUAL: c219042d
# PASSED AT ADDR: 35 EXPECTED: bab09d48 ACTUAL: bab09d48
# PASSED AT ADDR: 36 EXPECTED: 139af1d7 ACTUAL: 139af1d7
# PASSED AT ADDR: 37 EXPECTED: 417d2a1d ACTUAL: 417d2a1d
# PASSED AT ADDR: 38 EXPECTED: 582d66c1 ACTUAL: 582d66c1
# PASSED AT ADDR: 39 EXPECTED: 44981f5 ACTUAL: 44981f5
# PASSED AT ADDR: 3a EXPECTED: 1505e298 ACTUAL: 1505e298
# PASSED AT ADDR: 3b EXPECTED: 6a9e682 ACTUAL: 6a9e682
# PASSED AT ADDR: 3c EXPECTED: 4b83ec82 ACTUAL: 4b83ec82
# PASSED AT ADDR: 3d EXPECTED: b1e5d871 ACTUAL: b1e5d871
# PASSED AT ADDR: 3e EXPECTED: d3ef4dc1 ACTUAL: d3ef4dc1
# PASSED AT ADDR: 3f EXPECTED: 24a1af15 ACTUAL: 24a1af15
# PASSED AT ADDR: 40 EXPECTED: ce5a0553 ACTUAL: ce5a0553
# PASSED AT ADDR: 41 EXPECTED: 34ae867e ACTUAL: 34ae867e
# PASSED AT ADDR: 42 EXPECTED: cd6a708f ACTUAL: cd6a708f
# PASSED AT ADDR: 43 EXPECTED: e92e7d39 ACTUAL: e92e7d39
# PASSED AT ADDR: 44 EXPECTED: ef1d085e ACTUAL: ef1d085e
# PASSED AT ADDR: 45 EXPECTED: 5d30c438 ACTUAL: 5d30c438
# PASSED AT ADDR: 46 EXPECTED: 1fa031ab ACTUAL: 1fa031ab
# PASSED AT ADDR: 47 EXPECTED: 1c7311a1 ACTUAL: 1c7311a1
# PASSED AT ADDR: 48 EXPECTED: 3658f17a ACTUAL: 3658f17a
# PASSED AT ADDR: 49 EXPECTED: a1ce4c18 ACTUAL: a1ce4c18
# PASSED AT ADDR: 4a EXPECTED: c272cf81 ACTUAL: c272cf81
# PASSED AT ADDR: 4b EXPECTED: ed0470b8 ACTUAL: ed0470b8
# PASSED AT ADDR: 4c EXPECTED: dbd21581 ACTUAL: dbd21581
# PASSED AT ADDR: 4d EXPECTED: baf0ede1 ACTUAL: baf0ede1
# PASSED AT ADDR: 4e EXPECTED: 8a6ea6f8 ACTUAL: 8a6ea6f8
# PASSED AT ADDR: 4f EXPECTED: 959a2ba2 ACTUAL: 959a2ba2
# PASSED AT ADDR: 50 EXPECTED: bfeb7f2f ACTUAL: bfeb7f2f
# PASSED AT ADDR: 51 EXPECTED: fd7fc60d ACTUAL: fd7fc60d
# PASSED AT ADDR: 52 EXPECTED: e318a97 ACTUAL: e318a97
# PASSED AT ADDR: 53 EXPECTED: 8a439038 ACTUAL: 8a439038
# PASSED AT ADDR: 54 EXPECTED: 6de71f43 ACTUAL: 6de71f43
# PASSED AT ADDR: 55 EXPECTED: cf2088c1 ACTUAL: cf2088c1
# PASSED AT ADDR: 56 EXPECTED: e584b34d ACTUAL: e584b34d
# PASSED AT ADDR: 57 EXPECTED: 1efbba1a ACTUAL: 1efbba1a
# PASSED AT ADDR: 58 EXPECTED: 35606c75 ACTUAL: 35606c75
# PASSED AT ADDR: 59 EXPECTED: 125d04c9 ACTUAL: 125d04c9
# PASSED AT ADDR: 5a EXPECTED: f0222bd6 ACTUAL: f0222bd6
# PASSED AT ADDR: 5b EXPECTED: edf2f2d3 ACTUAL: edf2f2d3
# PASSED AT ADDR: 5c EXPECTED: a2047b01 ACTUAL: a2047b01
# PASSED AT ADDR: 5d EXPECTED: 267f57d6 ACTUAL: 267f57d6
# PASSED AT ADDR: 5e EXPECTED: f706bd89 ACTUAL: f706bd89
# PASSED AT ADDR: 5f EXPECTED: 3ccefa2a ACTUAL: 3ccefa2a
# PASSED AT ADDR: 60 EXPECTED: c0240bf ACTUAL: c0240bf
# PASSED AT ADDR: 61 EXPECTED: 8f7ab1e0 ACTUAL: 8f7ab1e0
# PASSED AT ADDR: 62 EXPECTED: 888e60f ACTUAL: 888e60f
# PASSED AT ADDR: 63 EXPECTED: 51ba30a5 ACTUAL: 51ba30a5
# PASSED AT ADDR: 64 EXPECTED: 3b05e2d4 ACTUAL: 3b05e2d4
# PASSED AT ADDR: 65 EXPECTED: 4ca5c03f ACTUAL: 4ca5c03f
# PASSED AT ADDR: 66 EXPECTED: 810737a3 ACTUAL: 810737a3
# PASSED AT ADDR: 67 EXPECTED: 629b0f7e ACTUAL: 629b0f7e
# PASSED AT ADDR: 68 EXPECTED: e4a6ae59 ACTUAL: e4a6ae59
# PASSED AT ADDR: 69 EXPECTED: 1ca2177d ACTUAL: 1ca2177d
# PASSED AT ADDR: 6a EXPECTED: 6e43864e ACTUAL: 6e43864e
# PASSED AT ADDR: 6b EXPECTED: 2b335718 ACTUAL: 2b335718
# PASSED AT ADDR: 6c EXPECTED: d4778cba ACTUAL: d4778cba
# PASSED AT ADDR: 6d EXPECTED: 70ae08e2 ACTUAL: 70ae08e2
# PASSED AT ADDR: 6e EXPECTED: 90bc0edb ACTUAL: 90bc0edb
# PASSED AT ADDR: 6f EXPECTED: 86fc4c33 ACTUAL: 86fc4c33
# PASSED AT ADDR: 70 EXPECTED: cf8ff713 ACTUAL: cf8ff713
# PASSED AT ADDR: 71 EXPECTED: d0c0c1fc ACTUAL: d0c0c1fc
# PASSED AT ADDR: 72 EXPECTED: c08b4b71 ACTUAL: c08b4b71
# PASSED AT ADDR: 73 EXPECTED: ae8fcdbd ACTUAL: ae8fcdbd
# PASSED AT ADDR: 74 EXPECTED: 4e449f82 ACTUAL: 4e449f82
# PASSED AT ADDR: 75 EXPECTED: 8ebca889 ACTUAL: 8ebca889
# PASSED AT ADDR: 76 EXPECTED: 1917b829 ACTUAL: 1917b829
# PASSED AT ADDR: 77 EXPECTED: 58d36d81 ACTUAL: 58d36d81
# PASSED AT ADDR: 78 EXPECTED: 60b6fd5e ACTUAL: 60b6fd5e
# PASSED AT ADDR: 79 EXPECTED: 731f05ad ACTUAL: 731f05ad
# PASSED AT ADDR: 7a EXPECTED: f4fac57 ACTUAL: f4fac57
# PASSED AT ADDR: 7b EXPECTED: 7e1ee994 ACTUAL: 7e1ee994
# PASSED AT ADDR: 7c EXPECTED: db7d71a8 ACTUAL: db7d71a8
# PASSED AT ADDR: 7d EXPECTED: ca242b7d ACTUAL: ca242b7d
# PASSED AT ADDR: 7e EXPECTED: ce24b474 ACTUAL: ce24b474
# PASSED AT ADDR: 7f EXPECTED: 1ffe1da8 ACTUAL: 1ffe1da8
# PASSED AT ADDR: 80 EXPECTED: 6787144a ACTUAL: 6787144a
# PASSED AT ADDR: 81 EXPECTED: bf7db6af ACTUAL: bf7db6af
# PASSED AT ADDR: 82 EXPECTED: 3612ad59 ACTUAL: 3612ad59
# PASSED AT ADDR: 83 EXPECTED: 7f2f874d ACTUAL: 7f2f874d
# PASSED AT ADDR: 84 EXPECTED: 394491a1 ACTUAL: 394491a1
# PASSED AT ADDR: 85 EXPECTED: 87303c1e ACTUAL: 87303c1e
# PASSED AT ADDR: 86 EXPECTED: fa68a1c ACTUAL: fa68a1c
# PASSED AT ADDR: 87 EXPECTED: f222d0fe ACTUAL: f222d0fe
# PASSED AT ADDR: 88 EXPECTED: 572cc548 ACTUAL: 572cc548
# PASSED AT ADDR: 89 EXPECTED: e4efdd25 ACTUAL: e4efdd25
# PASSED AT ADDR: 8a EXPECTED: ee143f6a ACTUAL: ee143f6a
# PASSED AT ADDR: 8b EXPECTED: c17e4b49 ACTUAL: c17e4b49
# PASSED AT ADDR: 8c EXPECTED: ef3205ce ACTUAL: ef3205ce
# PASSED AT ADDR: 8d EXPECTED: 5c096700 ACTUAL: 5c096700
# PASSED AT ADDR: 8e EXPECTED: c7df5433 ACTUAL: c7df5433
# PASSED AT ADDR: 8f EXPECTED: ba5a5ec3 ACTUAL: ba5a5ec3
# PASSED AT ADDR: 90 EXPECTED: fb38f8fe ACTUAL: fb38f8fe
# PASSED AT ADDR: 91 EXPECTED: 9e7ca75e ACTUAL: 9e7ca75e
# PASSED AT ADDR: 92 EXPECTED: 5b7480bb ACTUAL: 5b7480bb
# PASSED AT ADDR: 93 EXPECTED: 44218d1b ACTUAL: 44218d1b
# PASSED AT ADDR: 94 EXPECTED: bffc038a ACTUAL: bffc038a
# PASSED AT ADDR: 95 EXPECTED: 6003ad41 ACTUAL: 6003ad41
# PASSED AT ADDR: 96 EXPECTED: b726303b ACTUAL: b726303b
# PASSED AT ADDR: 97 EXPECTED: da0381ed ACTUAL: da0381ed
# PASSED AT ADDR: 98 EXPECTED: 9e752e08 ACTUAL: 9e752e08
# PASSED AT ADDR: 99 EXPECTED: a174ad79 ACTUAL: a174ad79
# PASSED AT ADDR: 9a EXPECTED: ca491321 ACTUAL: ca491321
# PASSED AT ADDR: 9b EXPECTED: 80e807c4 ACTUAL: 80e807c4
# PASSED AT ADDR: 9c EXPECTED: c41cd67e ACTUAL: c41cd67e
# PASSED AT ADDR: 9d EXPECTED: a2258cac ACTUAL: a2258cac
# PASSED AT ADDR: 9e EXPECTED: 5efe1d93 ACTUAL: 5efe1d93
# PASSED AT ADDR: 9f EXPECTED: 57ab95b2 ACTUAL: 57ab95b2
# PASSED AT ADDR: a0 EXPECTED: 71f16088 ACTUAL: 71f16088
# PASSED AT ADDR: a1 EXPECTED: 8c488f ACTUAL: 8c488f
# PASSED AT ADDR: a2 EXPECTED: 83a72506 ACTUAL: 83a72506
# PASSED AT ADDR: a3 EXPECTED: f0902f03 ACTUAL: f0902f03
# PASSED AT ADDR: a4 EXPECTED: cd2cdad6 ACTUAL: cd2cdad6
# PASSED AT ADDR: a5 EXPECTED: 5643ffb5 ACTUAL: 5643ffb5
# PASSED AT ADDR: a6 EXPECTED: 43a9cb45 ACTUAL: 43a9cb45
# PASSED AT ADDR: a7 EXPECTED: c161fafc ACTUAL: c161fafc
# PASSED AT ADDR: a8 EXPECTED: 9fbeade9 ACTUAL: 9fbeade9
# PASSED AT ADDR: a9 EXPECTED: ec0537b0 ACTUAL: ec0537b0
# PASSED AT ADDR: aa EXPECTED: 28f148ff ACTUAL: 28f148ff
# PASSED AT ADDR: ab EXPECTED: 3d261201 ACTUAL: 3d261201
# PASSED AT ADDR: ac EXPECTED: 8099c7bd ACTUAL: 8099c7bd
# PASSED AT ADDR: ad EXPECTED: 7a2018aa ACTUAL: 7a2018aa
# PASSED AT ADDR: ae EXPECTED: e5b02d20 ACTUAL: e5b02d20
# PASSED AT ADDR: af EXPECTED: 74a1b70b ACTUAL: 74a1b70b
# PASSED AT ADDR: b0 EXPECTED: cd761bd9 ACTUAL: cd761bd9
# PASSED AT ADDR: b1 EXPECTED: edafc9d2 ACTUAL: edafc9d2
# PASSED AT ADDR: b2 EXPECTED: 8a56e52d ACTUAL: 8a56e52d
# PASSED AT ADDR: b3 EXPECTED: a2487585 ACTUAL: a2487585
# PASSED AT ADDR: b4 EXPECTED: 1520ba4f ACTUAL: 1520ba4f
# PASSED AT ADDR: b5 EXPECTED: 3f4195f8 ACTUAL: 3f4195f8
# PASSED AT ADDR: b6 EXPECTED: ce7d95ac ACTUAL: ce7d95ac
# PASSED AT ADDR: b7 EXPECTED: a05886c4 ACTUAL: a05886c4
# PASSED AT ADDR: b8 EXPECTED: 39496200 ACTUAL: 39496200
# PASSED AT ADDR: b9 EXPECTED: f77c3878 ACTUAL: f77c3878
# PASSED AT ADDR: ba EXPECTED: 86521d74 ACTUAL: 86521d74
# PASSED AT ADDR: bb EXPECTED: e64cb43d ACTUAL: e64cb43d
# PASSED AT ADDR: bc EXPECTED: 15b8b838 ACTUAL: 15b8b838
# PASSED AT ADDR: bd EXPECTED: 3d311159 ACTUAL: 3d311159
# PASSED AT ADDR: be EXPECTED: 89b7a80 ACTUAL: 89b7a80
# PASSED AT ADDR: bf EXPECTED: cf453bcb ACTUAL: cf453bcb
# PASSED AT ADDR: c0 EXPECTED: c5adae05 ACTUAL: c5adae05
# PASSED AT ADDR: c1 EXPECTED: cead7755 ACTUAL: cead7755
# PASSED AT ADDR: c2 EXPECTED: 669aede0 ACTUAL: 669aede0
# PASSED AT ADDR: c3 EXPECTED: 1e6c8835 ACTUAL: 1e6c8835
# PASSED AT ADDR: c4 EXPECTED: 460a7afd ACTUAL: 460a7afd
# PASSED AT ADDR: c5 EXPECTED: 68ab02af ACTUAL: 68ab02af
# PASSED AT ADDR: c6 EXPECTED: 24d6d02c ACTUAL: 24d6d02c
# PASSED AT ADDR: c7 EXPECTED: 988cb61e ACTUAL: 988cb61e
# PASSED AT ADDR: c8 EXPECTED: 7c442d44 ACTUAL: 7c442d44
# PASSED AT ADDR: c9 EXPECTED: 893a5e0d ACTUAL: 893a5e0d
# PASSED AT ADDR: ca EXPECTED: c1a97d4b ACTUAL: c1a97d4b
# PASSED AT ADDR: cb EXPECTED: e15207c ACTUAL: e15207c
# PASSED AT ADDR: cc EXPECTED: 3b7fe7b2 ACTUAL: 3b7fe7b2
# PASSED AT ADDR: cd EXPECTED: fd305863 ACTUAL: fd305863
# PASSED AT ADDR: ce EXPECTED: dc41ece5 ACTUAL: dc41ece5
# PASSED AT ADDR: cf EXPECTED: 2e5db147 ACTUAL: 2e5db147
# PASSED AT ADDR: d0 EXPECTED: 5ca5c772 ACTUAL: 5ca5c772
# PASSED AT ADDR: d1 EXPECTED: 7efe480 ACTUAL: 7efe480
# PASSED AT ADDR: d2 EXPECTED: 3f42e7dd ACTUAL: 3f42e7dd
# PASSED AT ADDR: d3 EXPECTED: eada4e3e ACTUAL: eada4e3e
# PASSED AT ADDR: d4 EXPECTED: 43d120da ACTUAL: 43d120da
# PASSED AT ADDR: d5 EXPECTED: c76bf98a ACTUAL: c76bf98a
# PASSED AT ADDR: d6 EXPECTED: 4b54ba23 ACTUAL: 4b54ba23
# PASSED AT ADDR: d7 EXPECTED: dc812191 ACTUAL: dc812191
# PASSED AT ADDR: d8 EXPECTED: cf54d220 ACTUAL: cf54d220
# PASSED AT ADDR: d9 EXPECTED: 65161c95 ACTUAL: 65161c95
# PASSED AT ADDR: da EXPECTED: 27db05a2 ACTUAL: 27db05a2
# PASSED AT ADDR: db EXPECTED: 5acaec91 ACTUAL: 5acaec91
# PASSED AT ADDR: dc EXPECTED: 2cc7eded ACTUAL: 2cc7eded
# PASSED AT ADDR: dd EXPECTED: ace90655 ACTUAL: ace90655
# PASSED AT ADDR: de EXPECTED: e906fef ACTUAL: e906fef
# PASSED AT ADDR: df EXPECTED: d30b9bf1 ACTUAL: d30b9bf1
# PASSED AT ADDR: e0 EXPECTED: 6b4de15f ACTUAL: 6b4de15f
# PASSED AT ADDR: e1 EXPECTED: 91259e38 ACTUAL: 91259e38
# PASSED AT ADDR: e2 EXPECTED: a8a214f0 ACTUAL: a8a214f0
# PASSED AT ADDR: e3 EXPECTED: a42579a1 ACTUAL: a42579a1
# PASSED AT ADDR: e4 EXPECTED: 1e550528 ACTUAL: 1e550528
# PASSED AT ADDR: e5 EXPECTED: 2fb946bc ACTUAL: 2fb946bc
# PASSED AT ADDR: e6 EXPECTED: ca56b0fc ACTUAL: ca56b0fc
# PASSED AT ADDR: e7 EXPECTED: 6bb7be1 ACTUAL: 6bb7be1
# PASSED AT ADDR: e8 EXPECTED: c71b985f ACTUAL: c71b985f
# PASSED AT ADDR: e9 EXPECTED: 806fdcba ACTUAL: 806fdcba
# PASSED AT ADDR: ea EXPECTED: 658c5f60 ACTUAL: 658c5f60
# PASSED AT ADDR: eb EXPECTED: 411265fd ACTUAL: 411265fd
# PASSED AT ADDR: ec EXPECTED: e74b35d2 ACTUAL: e74b35d2
# PASSED AT ADDR: ed EXPECTED: a14d1839 ACTUAL: a14d1839
# PASSED AT ADDR: ee EXPECTED: 8ce9ee26 ACTUAL: 8ce9ee26
# PASSED AT ADDR: ef EXPECTED: 7936bb0f ACTUAL: 7936bb0f
# <<----FAILED AT ADDR: f0 EXPECTED: cff4289f ACTUAL: 7d0---->> 
# PASSED AT ADDR: f1 EXPECTED: 9284351a ACTUAL: 9284351a
# PASSED AT ADDR: f2 EXPECTED: b157dfaf ACTUAL: b157dfaf
# PASSED AT ADDR: f3 EXPECTED: 5d5916e0 ACTUAL: 5d5916e0
# PASSED AT ADDR: f4 EXPECTED: 13b0a759 ACTUAL: 13b0a759
# PASSED AT ADDR: f5 EXPECTED: a695bb64 ACTUAL: a695bb64
# PASSED AT ADDR: f6 EXPECTED: 54f9fcb1 ACTUAL: 54f9fcb1
# PASSED AT ADDR: f7 EXPECTED: c6c71598 ACTUAL: c6c71598
# PASSED AT ADDR: f8 EXPECTED: 939fe273 ACTUAL: 939fe273
# PASSED AT ADDR: f9 EXPECTED: 78c7fb9b ACTUAL: 78c7fb9b
# <<----FAILED AT ADDR: fa EXPECTED: 90e82db8 ACTUAL: 7d0---->> 
# PASSED AT ADDR: fb EXPECTED: d5081581 ACTUAL: d5081581
# PASSED AT ADDR: fc EXPECTED: 97b5901c ACTUAL: 97b5901c
# PASSED AT ADDR: fd EXPECTED: a633f3bb ACTUAL: a633f3bb
# PASSED AT ADDR: fe EXPECTED: 12f3cefc ACTUAL: 12f3cefc
# PASSED AT ADDR: ff EXPECTED: 53a61d83 ACTUAL: 53a61d83
# =============================================================================================
# 10270000 Total Count :: 256, Passed Count ::: 254, Total Failed Count :::           2
# =============================================================================================
# ** Note: $finish    : tb_top.sv(38)
#    Time: 10270 ns  Iteration: 0  Instance: /tb_top
# End time: 10:33:00 on Nov 02,2024, Elapsed time: 0:00:00
# Errors: 0, Warnings: 0
